[
  {
    "ContestId": 1,
    "Title": "Animal Contest 2012",
    "CategoryId": 1,
    "CreateOnDate": "2022-04-10T18:25:43.511Z",
    "TimeLimitPhaseOne": 24,
    "TimeLimitPhaseTwo": 5,
    "isFinished": false,
    "ImagePath": "Contest-Default.jpg",
    "ContestTypeId": 1,
    "OrganaizerId": 1
  },
  {
    "ContestId": 2,
    "Title": "Mountains Contest 2021",
    "CategoryId": 2,
    "CreateOnDate": "2021-05-20T08:25:43.511Z",
    "TimeLimitPhaseOne": 10,
    "TimeLimitPhaseTwo": 1,
    "isFinished": false,
    "ImagePath": "Contest-Default.jpg",
    "ContestTypeId": 1,
    "OrganaizerId": 1
  },
  {
    "ContestId": 3,
    "Title": "Nature Contest 2021",
    "CategoryId": 3,
    "CreateOnDate": "2021-05-14T08:25:43.511Z",
    "TimeLimitPhaseOne": 15,
    "TimeLimitPhaseTwo": 13,
    "isFinished": false,
    "ImagePath": "Contest-ChernoMore.jpg",
    "ContestTypeId": 1,
    "OrganaizerId": 1
  },
  {
    "ContestId": 4,
    "Title": "Space Contest 2021",
    "CategoryId": 5,
    "CreateOnDate": "2021-05-18T08:25:43.511Z",
    "TimeLimitPhaseOne": 1,
    "TimeLimitPhaseTwo": 24,
    "isFinished": false,
    "ImagePath": "Contest-Default.jpg",
    "ContestTypeId": 1,
    "OrganaizerId": 1
  },
  {
    "ContestId": 5,
    "Title": "Mars Contest 2020",
    "CategoryId": 4,
    "CreateOnDate": "2020-05-18T08:25:43.511Z",
    "TimeLimitPhaseOne": 1,
    "TimeLimitPhaseTwo": 24,
    "isFinished": false,
    "ImagePath": "Contest-Default.jpg",
    "ContestTypeId": 1,
    "OrganaizerId": 1
  },
  {
    "ContestId": 6,
    "Title": "Neptun Contest 2020",
    "CategoryId": 4,
    "CreateOnDate": "2021-06-03T08:25:43.511Z",
    "TimeLimitPhaseOne": 25,
    "TimeLimitPhaseTwo": 24,
    "isFinished": true,
    "ImagePath": "Contest-Default.jpg",
    "ContestTypeId": 2,
    "OrganaizerId": 1
  },
  {
    "ContestId": 7,
    "Title": "Solar Contest 2020",
    "CategoryId": 4,
    "CreateOnDate": "2020-05-15T08:25:43.511Z",
    "TimeLimitPhaseOne": 1,
    "TimeLimitPhaseTwo": 24,
    "isFinished": false,
    "ImagePath": "Contest-Default.jpg",
    "ContestTypeId": 1,
    "OrganaizerId": 1
  }
]
